{
	"info": {
		"_postman_id": "d04f73d0-511d-4d46-90bd-5cf959fe1881",
		"name": "Node JS API",
		"schema": "https://schema.getpostman.com/json/collection/v2.1.0/collection.json"
	},
	"item": [
		{
			"name": "BicicletasAPI",
			"protocolProfileBehavior": {
				"disableBodyPruning": true
			},
			"request": {
				"method": "GET",
				"header": [
					{
						"key": "Content-Type",
						"value": "application/json",
						"type": "text"
					}
				],
				"body": {
					"mode": "raw",
					"raw": ""
				},
				"url": {
					"raw": "http://localhost:3000/api/bicicletas",
					"protocol": "http",
					"host": [
						"localhost"
					],
					"port": "3000",
					"path": [
						"api",
						"bicicletas"
					]
				}
			},
			"response": []
		},
		{
			"name": "delete bicicleta",
			"request": {
				"method": "POST",
				"header": [],
				"body": {
					"mode": "raw",
					"raw": "{\r\n    \"id\":\"1\"\r\n}",
					"options": {
						"raw": {
							"language": "json"
						}
					}
				},
				"url": {
					"raw": "http://localhost:3000/api/bicicletas/delete",
					"protocol": "http",
					"host": [
						"localhost"
					],
					"port": "3000",
					"path": [
						"api",
						"bicicletas",
						"delete"
					]
				}
			},
			"response": []
		},
		{
			"name": "crear bicicleta",
			"request": {
				"method": "POST",
				"header": [],
				"body": {
					"mode": "raw",
					"raw": "{\r\n    \"color\": \"albirojaa\",\r\n    \"modelo\": \"montaña\",\r\n    \"latitud\" :\"21.929217\",\r\n    \"longitud\": \"-102.258587\"\r\n}",
					"options": {
						"raw": {
							"language": "json"
						}
					}
				},
				"url": {
					"raw": "http://localhost:3000/api/bicicletas/create",
					"protocol": "http",
					"host": [
						"localhost"
					],
					"port": "3000",
					"path": [
						"api",
						"bicicletas",
						"create"
					]
				}
			},
			"response": []
		},
		{
			"name": "crear usuario",
			"request": {
				"method": "POST",
				"header": [],
				"body": {
					"mode": "raw",
					"raw": "{\r\n    \"nombre\":\"Alejand\"\r\n}",
					"options": {
						"raw": {
							"language": "json"
						}
					}
				},
				"url": {
					"raw": "http://localhost:3000/api/usuarios/create",
					"protocol": "http",
					"host": [
						"localhost"
					],
					"port": "3000",
					"path": [
						"api",
						"usuarios",
						"create"
					]
				}
			},
			"response": []
		},
		{
			"name": "crear reserva",
			"request": {
				"method": "POST",
				"header": [],
				"body": {
					"mode": "raw",
					"raw": "{\r\n    \"id\": \"60f63fd30481a43f009270c2\",\r\n    \"bici_id\": \"60f6408d0b473b354c29328e\",\r\n    \"desde\" :\"2021-07-18\",\r\n    \"hasta\": \"2021-07-19\"\r\n}",
					"options": {
						"raw": {
							"language": "json"
						}
					}
				},
				"url": {
					"raw": "http://localhost:3000/api/usuarios/reservar",
					"protocol": "http",
					"host": [
						"localhost"
					],
					"port": "3000",
					"path": [
						"api",
						"usuarios",
						"reservar"
					]
				}
			},
			"response": []
		}
	]
}